algorithm,metric,t,p-value,DoF
MLP,AUC,2.74818,0.01507,14.81552
MLP,MCC,1.50017,0.15163,17.2691
MLP,Precision,2.81332,0.01338,14.58755
MLP,Recall,1.51319,0.14831,17.27442
kmeans,AUC,2.53421,0.02889,10.38009
kmeans,MCC,2.11219,0.04951,17.29067
kmeans,Precision,3.33193,0.00717,10.44196
kmeans,Recall,2.53421,0.02889,10.38009
multireg,AUC,-4.08184,0.0009,15.73283
multireg,MCC,0.45194,0.6573,16.22668
multireg,Precision,1.28692,0.21732,15.24281
multireg,Recall,0.64783,0.52684,15.07582
random_forest,AUC,-9.41146,0.0,16.71151
random_forest,MCC,-4.42993,0.0004,16.40796
random_forest,Precision,-5.61014,3e-05,17.42023
random_forest,Recall,-4.52314,0.00032,16.61552
