algorithm,metric,input,value
dummy,AUC,MFCCs,0.501
dummy,AUC,Spec. Img.s,0.501
dummy,MCC,MFCCs,0.003
dummy,MCC,Spec. Img.s,0.003
dummy,Precision,MFCCs,0.044
dummy,Precision,Spec. Img.s,0.044
dummy,Recall,MFCCs,0.058
dummy,Recall,Spec. Img.s,0.058
kmeans,AUC,MFCCs,0.526
kmeans,AUC,Spec. Img.s,0.501
kmeans,MCC,MFCCs,0.057
kmeans,MCC,Spec. Img.s,0.001
kmeans,Precision,MFCCs,0.041
kmeans,Precision,Spec. Img.s,0.007
kmeans,Recall,MFCCs,0.106
kmeans,Recall,Spec. Img.s,0.058
multireg,AUC,MFCCs,0.616
multireg,AUC,Spec. Img.s,0.729
multireg,MCC,MFCCs,0.055
multireg,MCC,Spec. Img.s,0.042
multireg,Precision,MFCCs,0.075
multireg,Precision,Spec. Img.s,0.042
multireg,Recall,MFCCs,0.106
multireg,Recall,Spec. Img.s,0.089
random_forest,AUC,MFCCs,0.743
random_forest,AUC,Spec. Img.s,0.866
random_forest,MCC,MFCCs,0.21
random_forest,MCC,Spec. Img.s,0.333
random_forest,Precision,MFCCs,0.177
random_forest,Precision,Spec. Img.s,0.322
random_forest,Recall,MFCCs,0.25
random_forest,Recall,Spec. Img.s,0.367
MLP,AUC,MFCCs,0.595
MLP,AUC,Spec. Img.s,0.523
MLP,MCC,MFCCs,0.052
MLP,MCC,Spec. Img.s,0.015
MLP,Precision,MFCCs,0.065
MLP,Precision,Spec. Img.s,0.013
MLP,Recall,MFCCs,0.103
MLP,Recall,Spec. Img.s,0.069
CNN,AUC,MFCCs,0.797
CNN,AUC,Spec. Img.s,0.815
CNN,MCC,MFCCs,0.291
CNN,MCC,Spec. Img.s,0.273
CNN,Precision,MFCCs,0.246
CNN,Precision,Spec. Img.s,0.19
CNN,Recall,MFCCs,0.322
CNN,Recall,Spec. Img.s,0.306
