﻿testing context,metric,DoF1,DoF2,F,p-unc,partial η2
DI,AUC,2,16.674,0.071,0.932,0.004
SC,AUC,2,16.223,18.738,<0.001,0.535
mixed,AUC,2,17.196,2.424,0.118,0.143
DI,MCC,2,17.482,2.992,0.076,0.168
SC,MCC,2,16.022,41.322,<0.001,0.681
mixed,MCC,2,17.106,7.402,0.005,0.312
DI,Precision,2,17.938,2.545,0.106,0.158
SC,Precision,2,17.525,24.683,<0.001,0.633
mixed,Precision,2,17.928,4.453,0.027,0.236
DI,Recall,2,17.938,2.789,0.088,0.17
SC,Recall,2,17.056,35.825,<0.001,0.673
mixed,Recall,2,17.618,7.397,0.005,0.317
,,,,,,
