﻿metric,training context,mean score
AUC,DI,0.633
AUC,SC,0.793
AUC,mixed,0.68
MCC,DI,0.173
MCC,SC,0.514
MCC,mixed,0.314
Precision,DI,0.182
Precision,SC,0.423
Precision,mixed,0.303
Recall,DI,0.313
Recall,SC,0.573
Recall,mixed,0.42
,,
